<?xml version="1.0" encoding="UTF-8" standalone="no"?>
<!-- Created with Inkscape (http://www.inkscape.org/) -->

<svg
   xmlns:dc="http://purl.org/dc/elements/1.1/"
   xmlns:cc="http://creativecommons.org/ns#"
   xmlns:rdf="http://www.w3.org/1999/02/22-rdf-syntax-ns#"
   xmlns:svg="http://www.w3.org/2000/svg"
   xmlns="http://www.w3.org/2000/svg"
   xmlns:sodipodi="http://sodipodi.sourceforge.net/DTD/sodipodi-0.dtd"
   xmlns:inkscape="http://www.inkscape.org/namespaces/inkscape"
   width="107.84931mm"
   height="87.172104mm"
   viewBox="0 0 107.84931 87.172104"
   version="1.1"
   id="svg6240"
   inkscape:version="0.92.2 2405546, 2018-03-11"
   sodipodi:docname="vlc.svg">
  <defs
     id="defs6234" />
  <sodipodi:namedview
     id="base"
     pagecolor="#ffffff"
     bordercolor="#666666"
     borderopacity="1.0"
     inkscape:pageopacity="0.0"
     inkscape:pageshadow="2"
     inkscape:zoom="0.98994949"
     inkscape:cx="183.46806"
     inkscape:cy="154.80583"
     inkscape:document-units="mm"
     inkscape:current-layer="layer1"
     showgrid="false"
     inkscape:window-width="1278"
     inkscape:window-height="986"
     inkscape:window-x="1680"
     inkscape:window-y="18"
     inkscape:window-maximized="0"
     fit-margin-top="0"
     fit-margin-left="0"
     fit-margin-right="0"
     fit-margin-bottom="0" />
  <metadata
     id="metadata6237">
    <rdf:RDF>
      <cc:Work
         rdf:about="">
        <dc:format>image/svg+xml</dc:format>
        <dc:type
           rdf:resource="http://purl.org/dc/dcmitype/StillImage" />
        <dc:title></dc:title>
      </cc:Work>
    </rdf:RDF>
  </metadata>
  <g
     inkscape:label="Layer 1"
     inkscape:groupmode="layer"
     id="layer1"
     transform="translate(-42.074226,-80.426201)">
    <path
       style="clip-rule:evenodd;fill:#f7bb82;fill-opacity:1;fill-rule:evenodd;stroke:#000000;stroke-width:0.26458332;stroke-linecap:round"
       d="m 71.433093,99.819619 c 1.456002,0.466461 1.214967,1.175281 0.431536,2.302931 -0.726546,1.04616 0.262996,1.52347 1.234016,1.74625 1.05754,0.24262 2.185723,0.2159 3.221302,-0.11562 1.466586,-0.46937 1.776413,-0.89509 0.838465,-2.03809 -1.712912,-2.087029 3.233738,-2.393682 4.356629,-2.345527 1.309423,0.05636 2.590271,0.310091 3.869267,0.578908 0.361422,-1.040871 0.740569,-2.07645 0.875507,-3.175265 0.109008,-0.88847 0.02567,-1.790964 -0.332052,-2.617787 -0.608278,-1.405996 -1.526118,-1.244865 -2.731295,-0.649817 -2.302933,1.136915 -3.250935,-1.819275 -2.3622,-3.574256 0.694267,-0.20029 0.548217,-0.661458 1.377157,-0.542131 0.600075,0.08652 1.148291,0.356923 1.721908,0.533929 1.374246,0.424392 1.922992,-0.137848 2.174876,-1.479021 0.28231,-1.504421 -0.250561,-2.9464 -0.786872,-4.377796 -1.814512,-0.376502 -3.634846,-0.717021 -5.462058,-0.510381 -0.808832,0.09155 -3.15939,0.350044 -3.064934,1.519237 0.0717,0.886884 1.207823,1.124744 0.989542,2.066661 -1.482725,1.078706 -4.503208,1.626658 -5.963708,0.250296 -0.843227,-0.794544 0.944033,-1.919288 0.658018,-3.026569 -1.267354,-0.30189 -2.55561,-0.512763 -3.850481,-0.650346 -1.204383,-0.127794 -2.415116,-0.1905 -3.626643,-0.201348 -0.01217,1.315509 -0.05265,2.633663 -0.02223,3.908161 0.02143,0.901435 -0.04286,1.921668 -0.711465,2.604558 -1.03505,0.400579 -2.222235,-0.493448 -3.22236,-0.637646 -2.3876,-0.344223 -2.242344,4.444206 -0.0087,4.422511 1.016264,-0.01006 1.730904,-1.038225 2.807229,-0.761471 0.850106,0.218546 1.18401,1.662641 1.269471,2.408237 0.100277,0.875506 -0.539221,2.704571 -1.072356,4.591843 2.471208,-0.517789 4.934743,-1.017587 7.392456,-0.230451 z"
       id="path996"
       inkscape:connector-curvature="0" />
    <path
       style="clip-rule:evenodd;fill:#b5efed;fill-opacity:1;fill-rule:evenodd;stroke:#000000;stroke-width:0.26458332;stroke-linecap:round"
       d="m 66.930414,132.31283 c 1.392238,-0.0476 2.783152,-0.14393 4.167188,-0.3003 0.671512,-0.0759 1.623218,0.18944 1.370277,-0.80989 -0.121973,-0.64294 -0.575204,-1.13797 -0.912813,-1.67375 0.303477,-2.02301 4.134115,-1.34673 5.416286,-0.91493 1.350168,0.45482 0.804598,1.59438 -0.125942,2.3024 -0.28284,1.44516 1.693333,1.46897 2.77839,1.5449 1.886479,0.1323 3.786981,-0.28125 5.68325,-0.67574 0.680509,-1.94125 1.493838,-3.88514 0.622036,-5.8846 -1.223699,-2.80617 -3.58537,1.18004 -4.992689,-1.10887 -0.486833,-0.7919 -0.572558,-1.80181 -0.281781,-2.67864 0.51779,-1.56316 2.173288,-0.78184 3.278717,-0.44053 3.027628,0.93477 2.253722,-2.78712 1.402027,-5.74384 -0.07726,0.0159 -0.154252,0.0318 -0.231246,0.0476 -2.338917,0.48128 -4.774671,0.95488 -7.138194,0.34713 -1.760273,-0.45243 -1.033462,-1.00039 -0.375973,-2.14709 0.750623,-1.30942 -0.741097,-1.54411 -1.748895,-1.73329 -1.186127,-0.22251 -2.674409,-0.27014 -3.729302,0.38365 -1.024996,0.635 -0.143405,1.24751 0.21246,2.04787 0.725223,1.63143 -1.509977,1.30334 -2.617258,1.39648 -1.389856,0.11668 -2.783946,0.17806 -4.178565,0.19393 -0.526785,0.006 -1.053306,0.003 -1.579827,-0.003 0.03175,0.60008 -0.01111,1.21047 -0.197908,1.84812 -0.469106,1.60205 -0.66384,4.04548 1.925637,3.46339 0.952236,-0.21404 1.828536,-0.88979 2.849298,-0.64717 0.791633,0.60722 1.033727,1.54491 0.896938,2.50032 -0.1397,0.97631 -0.528902,2.11164 -1.732756,1.97934 -0.797984,-0.0876 -1.425575,-0.67601 -2.207419,-0.82047 -1.802342,-0.33284 -2.319867,2.66832 -2.176992,3.93621 0.06377,0.56488 0.581025,2.03385 1.015736,3.62294 0.86942,0.006 1.739635,-0.003 2.60932,-0.0323 z"
       id="path998"
       inkscape:connector-curvature="0" />
    <path
       style="clip-rule:evenodd;fill:#8376de;fill-opacity:1;fill-rule:evenodd;stroke:#000000;stroke-width:0.26458332;stroke-linecap:round"
       d="m 119.17901,115.04163 c 0.46355,-0.35269 0.77443,-0.84561 0.99219,-1.37769 -0.0627,-1.09035 -1.70286,-1.20941 -2.58234,-1.30783 -1.02949,-0.11536 -2.2471,-0.0844 -3.14404,0.47122 -1.02473,0.63526 -0.14341,1.24724 0.21246,2.04787 0.70723,1.59147 -1.47585,1.60708 -2.60482,1.66053 -1.10887,0.0524 -2.21748,-0.0789 -3.30782,-0.27093 -0.7329,-0.12912 -1.46368,-0.28787 -2.19552,-0.44186 -0.53128,1.56157 -1.09749,3.29062 -0.47625,4.91146 1.04855,2.73579 3.68433,-0.83688 5.11969,0.72946 0.98372,1.07368 0.79693,4.38996 -1.15861,4.14734 -0.79587,-0.099 -1.42187,-0.68659 -2.20715,-0.82047 -1.19883,-0.20452 -1.9304,1.20888 -2.07645,2.21694 -0.24051,1.65709 0.372,3.11679 0.44979,4.69239 0.0921,0.0497 0.18415,0.0992 0.27358,0.15557 1.31418,-0.2786 2.62122,-0.61383 3.9616,-0.74268 1.12766,-0.10848 2.29764,-0.0691 3.3655,0.34501 1.42187,0.55113 1.16285,1.31287 0.39767,2.41486 -1.5621,2.24949 3.91901,1.89468 4.96597,1.43854 2.55031,-1.11178 -1.87802,-2.72177 1.38509,-3.77931 2.34685,-0.76068 4.80325,-0.31935 7.15407,0.17356 7.9e-4,0 0.001,2.7e-4 0.002,2.7e-4 0.15716,-0.45217 0.3167,-0.90064 0.45429,-1.3462 0.58764,-1.90315 0.72945,-3.85339 -0.57044,-5.50704 -1.67931,-0.45984 -3.19961,1.87431 -4.48575,-0.44291 -0.47122,-0.84878 -0.46831,-1.91664 0.064,-2.73791 1.33985,-0.64294 1.38218,-0.43947 2.81464,-0.068 3.22209,0.83529 2.54767,-2.05952 2.08386,-4.12988 -0.0751,-0.33549 -0.10716,-0.67019 -0.1151,-1.00489 -2.45136,-0.0114 -4.9014,-0.15425 -7.34271,-0.37359 -0.94721,-0.0852 -1.66026,0.12171 -1.42955,-1.05384 z"
       id="path1000"
       inkscape:connector-curvature="0" />
    <path
       style="clip-rule:evenodd;fill:#ebcd76;fill-opacity:1;fill-rule:evenodd;stroke:#000000;stroke-width:0.26458332;stroke-linecap:round"
       d="m 106.48271,89.783973 c 1.19089,0.205052 1.67958,0.171715 2.90592,-0.257175 2.29553,-0.80301 2.89243,1.881981 1.99549,3.51155 -1.23825,2.249488 -3.18056,-1.070504 -4.63074,0.3175 -1.97908,1.894152 -1.07897,4.332288 -0.24474,6.697402 0.10266,-0.0212 0.20505,-0.0423 0.30745,-0.06323 2.10343,-0.429948 4.30477,-0.83873 6.43149,-0.3175 1.19671,0.293422 2.11111,0.66754 1.27476,1.97273 -0.80671,1.25889 -0.6768,1.85975 0.90937,2.22356 0.94007,0.21563 6.07695,-0.0643 4.36536,-1.81901 -2.27462,-2.331772 2.5707,-2.739495 4.0566,-2.673878 1.27926,0.05636 2.53179,0.301889 3.78195,0.564356 -0.82232,-2.329656 -1.66317,-4.720431 0.28443,-6.584421 1.45018,-1.388004 3.39249,1.932252 4.63074,-0.3175 0.89693,-1.629569 0.30003,-4.31456 -1.99549,-3.51155 -1.22661,0.429154 -1.71503,0.462227 -2.90592,0.257175 -0.47255,-0.726017 -0.69877,-1.56554 -0.68316,-2.429404 0.0201,-1.128713 0.36804,-2.206361 0.7374,-3.274219 -1.99284,-0.418835 -4.02511,-0.810419 -6.05208,-0.448733 -0.7411,0.132291 -2.60879,0.390525 -2.52386,1.443566 0.0717,0.886884 1.20756,1.125009 0.98928,2.066661 -1.34171,0.976312 -5.19166,1.875367 -6.21189,-0.04286 -0.3556,-0.668602 1.15967,-1.752864 0.9062,-2.73341 -0.98637,-0.482865 -2.06296,-0.73951 -3.15728,-0.799835 -1.71794,-0.09499 -3.42529,0.229393 -5.12683,0.575733 -0.36089,1.051189 -0.69691,2.112698 -0.71887,3.222625 -0.0169,0.859896 0.20399,1.696508 0.67442,2.419879 z"
       id="path1002"
       inkscape:connector-curvature="0" />
    <path
       style="clip-rule:evenodd;fill:#ffffff;fill-rule:evenodd;stroke:#000000;stroke-width:0.26458332;stroke-linecap:round"
       d="m 106.76026,157.10906 c -0.98769,-1.73567 -3.12473,1.32503 -4.61539,-0.62998 -1.32768,-1.74148 -0.1061,-4.26958 2.09973,-3.31866 1.05146,0.45323 2.30876,0.76491 2.79506,-0.41699 0.31433,-0.76411 0.36116,-1.59411 0.23865,-2.40453 -0.14472,-0.95885 -0.47783,-1.86611 -0.80962,-2.77389 -1.79176,-0.3773 -3.6023,-0.72232 -5.43269,-0.51329 -1.00886,0.11535 -2.274358,0.34872 -3.001962,1.08293 -0.419629,1.01733 0.899848,1.33033 0.945356,2.16112 0.103717,1.90288 -5.100373,1.43775 -5.992548,0.5969 -0.829733,-0.78184 0.709613,-1.6547 0.714904,-2.55799 0.0061,-1.03399 -1.89812,-1.29725 -2.706423,-1.36843 -1.354137,-0.11879 -2.715154,0.12198 -4.034895,0.4027 -0.550334,0.11695 -1.098286,0.24448 -1.64862,0.36169 -0.05001,-0.0328 -0.102923,-0.0606 -0.154252,-0.091 0.03307,0.29448 0.0508,0.59107 0.04022,0.89138 -0.0598,1.67587 -1.831711,3.98806 0.403225,4.86463 1.646767,0.64558 4.128559,-1.89178 4.912784,0.63552 0.634206,2.04338 -0.676275,3.96373 -2.764367,2.93688 -1.89865,-0.93424 -3.012017,0.27014 -3.274219,2.25451 -0.190765,1.44251 0.348456,2.8919 0.86995,4.33018 2.033852,-0.42016 4.135702,-0.85434 6.209771,-0.49054 0.892704,0.1569 2.512748,0.33972 2.081213,1.57956 -0.49239,1.07606 -1.622425,2.02486 0.113241,2.58524 1.055423,0.34052 5.670021,0.60511 5.180807,-1.3671 -0.595842,-0.64876 -1.350698,-1.27582 -0.651669,-2.12963 1.53326,-0.28866 3.080274,-0.50694 4.634174,-0.64929 1.30943,-0.11985 2.62546,-0.18573 3.9415,-0.1897 0.2577,-1.95369 0.9443,-3.95764 -0.0939,-5.78221 z"
       id="path1028"
       inkscape:connector-curvature="0" />
    <path
       style="clip-rule:evenodd;fill:#ef6161;fill-opacity:1;fill-rule:evenodd;stroke:#000000;stroke-width:0.26458332;stroke-linecap:round"
       d="m 86.108209,88.444123 c -0.251884,1.340908 -0.80063,1.903148 -2.174876,1.479021 -0.573617,-0.177006 -1.122098,-0.447411 -1.721908,-0.533929 -0.82894,-0.119592 -0.683155,0.341841 -1.377157,0.542131 -0.888735,1.754981 0.05927,4.711171 2.3622,3.574256 1.205177,-0.595048 2.122752,-0.756179 2.731295,0.649817 0.357717,0.826823 0.44106,1.729317 0.332052,2.617787 -0.134938,1.098815 -0.513821,2.134394 -0.875507,3.175265 1.094847,0.229919 2.188105,0.470959 3.296444,0.609599 1.096963,0.13705 2.213505,0.17013 3.307292,-0.014 1.329267,-0.22384 2.153973,-0.564884 1.277673,-1.957122 -0.592667,-0.941917 -0.620712,-1.15226 0.24474,-1.801283 1.298575,-0.47625 2.746904,-0.434975 4.070614,-0.08811 1.290902,0.338137 1.862138,0.876564 0.852223,2.068512 -1.050925,1.240633 0.01455,1.571623 1.248833,1.805783 2.282293,0.43259 4.586813,-0.0574 6.826513,-0.51859 -0.83423,-2.365105 -1.73461,-4.803241 0.24474,-6.697393 1.45018,-1.388004 3.39249,1.932252 4.63074,-0.3175 0.89694,-1.629569 0.30004,-4.31456 -1.99549,-3.51155 -1.22661,0.429154 -1.71503,0.462492 -2.90592,0.257175 -0.47043,-0.723106 -0.69135,-1.559983 -0.67442,-2.419879 0.022,-1.109927 0.35798,-2.171435 0.71887,-3.222625 -2.8403,0.578114 -5.6642,1.217612 -8.493387,0.06906 -0.454818,-1.259152 1.691217,-1.888596 0.638704,-3.020748 -1.079235,-0.447675 -2.264833,-0.68236 -3.434291,-0.621506 -0.760942,0.03942 -2.062956,0.160338 -2.402946,0.953029 -0.370152,0.864129 1.134798,1.617134 0.805392,2.690284 -2.762515,1.096433 -5.53429,0.432593 -8.31956,-0.145257 0.536576,1.431396 1.069447,2.873375 0.787137,4.377796 z"
       id="path1030"
       inkscape:connector-curvature="0" />
    <path
       style="clip-rule:evenodd;fill:#7a92dd;fill-opacity:1;fill-rule:evenodd;stroke:#000000;stroke-width:0.26458332;stroke-linecap:round"
       d="m 93.123107,131.75853 c 1.321593,0.53076 0.0545,1.82404 -0.410105,2.59742 -0.338666,0.93953 1.56554,1.28799 2.082271,1.36101 1.07659,0.15188 2.201863,0.0302 3.201988,-0.4056 1.690423,-0.73687 0.634206,-1.12051 0.08281,-2.2106 -0.853545,-1.68645 4.176179,-2.03517 5.187159,-2.05131 1.01626,-0.0164 2.0365,0.16669 2.93264,0.65087 -0.0778,-1.57559 -0.69003,-3.0353 -0.44979,-4.69238 0.14605,-1.00807 0.87762,-2.42147 2.07645,-2.21695 0.78528,0.13388 1.41128,0.72179 2.20715,0.82048 1.95554,0.24262 2.14233,-3.07367 1.15861,-4.14735 -1.43536,-1.56633 -4.07114,2.00634 -5.11969,-0.72945 -0.62124,-1.62084 -0.055,-3.34963 0.47625,-4.91146 -1.45917,-0.30719 -2.92311,-0.59505 -4.41827,-0.58923 -1.33403,0.005 -2.653244,0.27622 -3.852071,0.87154 -0.699029,0.85354 0.05556,1.4806 0.651669,2.12963 0.489214,1.9722 -4.125648,1.70762 -5.180807,1.3671 -1.735666,-0.56012 -0.605895,-1.50918 -0.113241,-2.58524 0.4318,-1.23984 -1.188773,-1.42267 -2.081213,-1.5793 -2.077244,-0.36486 -4.182798,0.0717 -6.219561,0.49212 0.851695,2.95672 1.625601,6.67862 -1.402027,5.74384 -1.105429,-0.34131 -2.760927,-1.12289 -3.278717,0.44053 -0.290512,0.87683 -0.205052,1.88675 0.281781,2.67865 1.407055,2.28891 3.76899,-1.69731 4.992689,1.10886 0.871802,1.99946 0.05847,3.94309 -0.622036,5.8846 2.629165,-0.54795 5.250392,-1.0586 7.816057,-0.0278 z"
       id="path1032"
       inkscape:connector-curvature="0" />
    <path
       style="clip-rule:evenodd;fill:#ffffff;fill-opacity:1;fill-rule:evenodd;stroke:#000000;stroke-width:0.26458332;stroke-linecap:round"
       d="m 127.64938,89.783973 c 1.19089,0.205052 1.67957,0.171715 2.90592,-0.257175 2.29552,-0.80301 2.89242,1.881981 1.99549,3.51155 -1.23825,2.249488 -3.18056,-1.070504 -4.63074,0.3175 -1.9476,1.86399 -1.10702,4.255029 -0.28443,6.584421 0.93742,0.196851 1.87325,0.402961 2.81781,0.547421 1.09273,0.16722 2.20531,0.25188 3.30782,0.13467 1.40785,-0.14922 2.87232,-0.39079 1.83754,-2.035699 -0.59267,-0.942182 -0.62072,-1.151996 0.24473,-1.801284 1.11337,-0.408252 2.34024,-0.434181 3.497,-0.216958 1.00807,0.189177 2.49979,0.424127 1.74916,1.733285 -0.31115,0.542396 -0.79798,0.67945 -0.79004,1.347259 0.009,0.755117 1.12368,0.809627 1.72905,0.924457 2.27674,0.43153 4.52305,-0.0659 6.76592,-0.53605 0.76624,-2.268007 1.72535,-4.494741 0.14367,-6.755341 -0.6596,-0.656431 -2.06533,-0.05344 -2.62202,0.478102 -1.24301,0.166423 -1.92855,-0.347397 -2.23202,-1.562629 -0.25162,-1.007268 -0.0786,-1.884891 0.68342,-2.498725 1.07447,-0.865452 2.47888,0.422804 3.73168,0.40005 1.37636,-0.02513 1.30545,-3.100916 1.15782,-5.380566 -0.28734,7.93e-4 -0.57441,0.0011 -0.86175,-0.0016 -1.1684,-0.01111 -8.48387,0.08202 -8.49604,-0.942446 -0.0116,-1.011766 1.67561,-1.541462 0.70618,-2.584714 -1.07924,-0.447675 -2.26484,-0.682361 -3.4343,-0.621507 -0.94482,0.04921 -2.34791,0.209815 -2.51645,1.335353 0.45561,0.723106 1.66317,2.097087 0.36513,2.503222 -2.16879,0.678657 -4.43918,0.348721 -6.6175,-0.09657 -0.36486,-0.07461 -0.73157,-0.152665 -1.09908,-0.229923 -0.36935,1.067593 -0.71728,2.145506 -0.73739,3.274218 -0.0151,0.86413 0.21087,1.703652 0.68342,2.429669 z"
       id="path1040"
       inkscape:connector-curvature="0" />
    <path
       style="clip-rule:evenodd;fill:#d272ab;fill-opacity:1;fill-rule:evenodd;stroke:#000000;stroke-width:0.26458332;stroke-linecap:round"
       d="m 91.554921,115.43718 c 0.892704,0.15663 2.513013,0.33946 2.081213,1.5793 -0.49239,1.07606 -1.622425,2.02512 0.113241,2.58524 1.055159,0.34078 5.670021,0.6051 5.180807,-1.3671 -0.595842,-0.64902 -1.350698,-1.27609 -0.651669,-2.12963 1.198827,-0.59532 2.518037,-0.86625 3.852067,-0.87154 1.49516,-0.006 2.9591,0.28205 4.41828,0.58923 0.007,-0.0217 0.0148,-0.0437 0.022,-0.0651 0.59796,-1.75657 1.29434,-3.6875 0.58102,-5.52027 -0.45402,-1.16761 -1.23587,-1.79335 -2.37304,-0.95726 -0.63659,0.46831 -1.44304,0.53393 -2.10582,0.081 -1.38351,-0.94509 -1.61925,-4.11692 0.56091,-4.15475 1.09564,-0.0191 2.17038,0.71622 3.37529,0.70485 0.48287,-0.70988 0.73713,-1.53379 0.73396,-2.39237 -0.004,-1.08267 -0.4109,-2.26509 -0.8345,-3.4663 -2.2397,0.46117 -4.54395,0.95117 -6.826513,0.51858 -1.234281,-0.23389 -2.299758,-0.56515 -1.248833,-1.805781 1.009915,-1.191948 0.438679,-1.730375 -0.852223,-2.068512 -1.32371,-0.346869 -2.772304,-0.388144 -4.070614,0.08811 -0.865452,0.649023 -0.837407,0.859631 -0.24474,1.801283 0.8763,1.392238 0.05159,1.73329 -1.277673,1.95712 -1.093787,0.18415 -2.210329,0.15108 -3.307292,0.014 -1.108339,-0.13837 -2.201597,-0.37967 -3.296444,-0.609597 -0.226748,0.653257 -0.446617,1.308627 -0.594783,1.983047 -0.333111,1.51765 -0.221986,4.47914 2.053167,3.9677 0.952235,-0.21405 1.828535,-0.8898 2.849298,-0.64717 0.791633,0.60721 1.033727,1.5449 0.896937,2.50031 -0.1397,0.97631 -0.528902,2.11164 -1.732756,1.97935 -0.797983,-0.0876 -1.425575,-0.67601 -2.207419,-0.82048 -1.802342,-0.33284 -2.319867,2.66833 -2.176992,3.93647 0.05636,0.50007 0.468577,1.70868 0.863865,3.08161 2.036763,-0.41963 4.142052,-0.8562 6.219296,-0.49134 z"
       id="path1078"
       inkscape:connector-curvature="0" />
    <path
       style="clip-rule:evenodd;fill:#ffffff;fill-opacity:1;fill-rule:evenodd;stroke:#000000;stroke-width:0.26458332;stroke-linecap:round"
       d="m 69.275681,147.29487 c 0.963348,0.12065 3.696494,0.0283 3.19405,1.47187 -0.545836,1.19328 -1.204384,1.27662 -0.382588,2.40057 0.991394,0.42095 2.100263,0.57203 3.16865,0.44212 0.664369,-0.0807 2.604559,-0.44053 2.557198,-1.31392 -0.05371,-0.98769 -1.6383,-1.29699 -0.700616,-2.44026 2.144183,-0.52228 4.456641,-1.29883 6.676495,-0.77178 0.481807,0.11456 0.944034,0.30162 1.368955,0.55615 -0.183621,-1.64042 -0.895615,-3.21257 -0.508265,-4.91569 0.168804,-0.7419 0.713846,-2.05105 1.606815,-2.09101 0.955146,-0.0429 1.6764,0.74772 2.599796,0.84905 1.972469,0.21643 2.170113,-3.02286 1.211792,-4.12803 -1.399117,-1.61369 -4.094427,1.99046 -5.160699,-0.76094 -0.628121,-1.62031 -0.15875,-3.2131 0.40005,-4.80722 -1.896269,0.3945 -3.796771,0.80804 -5.68325,0.67575 -1.085056,-0.0759 -3.061229,-0.0998 -2.778389,-1.5449 0.930539,-0.70803 1.47611,-1.84759 0.125941,-2.30241 -1.282171,-0.4318 -5.112808,-1.10807 -5.416285,0.91493 0.337608,0.53578 0.790839,1.03082 0.912812,1.67376 0.252942,0.99933 -0.698764,0.73395 -1.370277,0.80989 -1.3843,0.15636 -2.77495,0.25267 -4.167187,0.3003 -0.869685,0.0296 -1.739635,0.0386 -2.609585,0.0328 0.778668,2.84691 1.291166,6.08092 -1.553898,5.2025 -1.10543,-0.34131 -2.760928,-1.12262 -3.278717,0.44027 -0.290513,0.87683 -0.205052,1.88701 0.281781,2.67891 1.404144,2.28441 4.037277,-1.83806 4.859338,1.22872 0.440266,1.6428 0.34925,3.39064 0.283368,5.12419 0.126736,0.001 0.253471,-5.3e-4 0.380207,0.002 1.330589,0.0209 2.661179,0.10742 3.982508,0.27278 z"
       id="path1090"
       inkscape:connector-curvature="0" />
    <path
       style="clip-rule:evenodd;fill:#ffffff;fill-opacity:1;fill-rule:evenodd;stroke:#000000;stroke-width:0.26458332;stroke-linecap:round"
       d="m 107.43786,140.64377 c 1.8206,-0.11827 3.51446,2.1762 4.27752,-0.8165 0.21907,-0.8591 0.0923,-1.81716 -0.52308,-2.48867 -0.74057,-0.80804 -1.89257,-0.13282 -2.72865,0.16933 -2.81438,1.01706 -3.02445,-2.1 -2.4601,-4.01479 0.18389,-0.62362 0.2249,-1.21629 0.19632,-1.79335 -0.89614,-0.48418 -1.91637,-0.66701 -2.93264,-0.65087 -1.01097,0.0161 -6.0407,0.36486 -5.187155,2.05131 0.551392,1.09009 1.607873,1.47373 -0.08281,2.2106 -1.000125,0.43577 -2.125398,0.55748 -3.201988,0.4056 -0.516996,-0.0728 -2.420937,-0.42148 -2.082271,-1.36101 0.464609,-0.77338 1.731698,-2.06666 0.410105,-2.59742 -2.565665,-1.03081 -5.186892,-0.5199 -7.816057,0.0272 -0.5588,1.59412 -1.028171,3.18691 -0.40005,4.80722 1.066271,2.7514 3.761582,-0.85276 5.160698,0.76094 0.958321,1.10517 0.760677,4.34446 -1.211791,4.12803 -0.923396,-0.10134 -1.64465,-0.89191 -2.599796,-0.84905 -0.89297,0.04 -1.438011,1.34938 -1.606816,2.091 -0.38735,1.70339 0.324644,3.27528 0.508265,4.9157 0.05107,0.0304 0.104246,0.0582 0.154252,0.091 0.550334,-0.11721 1.098286,-0.24474 1.64862,-0.36169 1.319741,-0.28098 2.680758,-0.52175 4.034895,-0.40269 0.808038,0.0712 2.712244,0.33443 2.706423,1.36842 -0.0053,0.90329 -1.544637,1.77615 -0.714904,2.55799 0.892175,0.84085 6.096265,1.30625 5.992548,-0.5969 -0.04524,-0.83079 -1.364985,-1.14379 -0.945356,-2.16111 0.727604,-0.73396 1.992838,-0.96758 3.001958,-1.08294 1.83039,-0.20902 3.64094,0.13626 5.43269,0.51329 -0.30612,-0.83714 -0.61118,-1.67508 -0.76649,-2.55429 -0.21908,-1.23904 -0.008,-4.25291 1.73566,-4.36642 z"
       id="path1094"
       inkscape:connector-curvature="0" />
    <g
       id="g1149-7-3-6-6"
       transform="matrix(0.16933333,0,0,0.16933333,46.631815,62.125963)">
      <text
         id="text1125-9-7-5-0"
         y="258.09772"
         x="291.15283"
         style="font-style:normal;font-variant:normal;font-weight:normal;font-stretch:normal;font-size:12.40264988px;line-height:1;font-family:sans-serif;-inkscape-font-specification:'sans-serif, Normal';font-variant-ligatures:normal;font-variant-caps:normal;font-variant-numeric:normal;font-feature-settings:normal;text-align:center;letter-spacing:0px;word-spacing:0px;writing-mode:lr-tb;text-anchor:middle;fill:#000000;fill-opacity:1;stroke:none;stroke-width:0.31006622"
         xml:space="preserve"><tspan
           style="font-style:normal;font-variant:normal;font-weight:normal;font-stretch:normal;font-size:12.40264988px;font-family:Vegur;-inkscape-font-specification:'Vegur, Normal';font-variant-ligatures:normal;font-variant-caps:normal;font-variant-numeric:normal;font-feature-settings:normal;text-align:center;writing-mode:lr-tb;text-anchor:middle;fill:#000000;fill-opacity:0.42857145;stroke-width:0.31006622"
           y="258.09772"
           x="292.58203"
           sodipodi:role="line"
           id="tspan1353">Video </tspan><tspan
           style="font-style:normal;font-variant:normal;font-weight:normal;font-stretch:normal;font-size:12.40264988px;font-family:Vegur;-inkscape-font-specification:'Vegur, Normal';font-variant-ligatures:normal;font-variant-caps:normal;font-variant-numeric:normal;font-feature-settings:normal;text-align:center;writing-mode:lr-tb;text-anchor:middle;fill:#000000;fill-opacity:0.42857145;stroke-width:0.31006622"
           y="270.56528"
           x="291.15283"
           sodipodi:role="line"
           id="tspan6147">decoding</tspan></text>
      <text
         id="text1125-6-3-2-7-1"
         y="291.79401"
         x="290.59586"
         style="font-style:normal;font-variant:normal;font-weight:normal;font-stretch:normal;font-size:20.27218628px;line-height:1.25;font-family:sans-serif;-inkscape-font-specification:'sans-serif, Normal';font-variant-ligatures:normal;font-variant-caps:normal;font-variant-numeric:normal;font-feature-settings:normal;text-align:center;letter-spacing:0px;word-spacing:0px;writing-mode:lr-tb;text-anchor:middle;fill:#000000;fill-opacity:1;stroke:none;stroke-width:0.50680465"
         xml:space="preserve"><tspan
           style="font-style:normal;font-variant:normal;font-weight:normal;font-stretch:normal;font-size:20.27218628px;font-family:Vegur;-inkscape-font-specification:'Vegur, Normal';font-variant-ligatures:normal;font-variant-caps:normal;font-variant-numeric:normal;font-feature-settings:normal;text-align:center;writing-mode:lr-tb;text-anchor:middle;stroke-width:0.50680465"
           y="291.79401"
           x="290.59586"
           id="tspan1123-8-3-6-9-0"
           sodipodi:role="line">ffmpeg</tspan></text>
    </g>
    <g
       id="g1149-7-3-6-6-4"
       transform="matrix(0.16933333,0,0,0.16933333,46.4679,78.985255)">
      <text
         id="text1125-9-7-5-0-8"
         y="261.22272"
         x="291.15283"
         style="font-style:normal;font-variant:normal;font-weight:normal;font-stretch:normal;font-size:12.40264988px;line-height:1;font-family:sans-serif;-inkscape-font-specification:'sans-serif, Normal';font-variant-ligatures:normal;font-variant-caps:normal;font-variant-numeric:normal;font-feature-settings:normal;text-align:center;letter-spacing:0px;word-spacing:0px;writing-mode:lr-tb;text-anchor:middle;fill:#000000;fill-opacity:1;stroke:none;stroke-width:0.31006622"
         xml:space="preserve"><tspan
           style="font-style:normal;font-variant:normal;font-weight:normal;font-stretch:normal;font-size:12.40264988px;font-family:Vegur;-inkscape-font-specification:'Vegur, Normal';font-variant-ligatures:normal;font-variant-caps:normal;font-variant-numeric:normal;font-feature-settings:normal;text-align:center;writing-mode:lr-tb;text-anchor:middle;fill:#000000;fill-opacity:0.42857145;stroke-width:0.31006622"
           y="261.22272"
           x="291.15283"
           sodipodi:role="line"
           id="tspan1353-0">Video codec</tspan></text>
      <text
         id="text1125-6-3-2-7-1-8"
         y="282.41901"
         x="290.59586"
         style="font-style:normal;font-variant:normal;font-weight:normal;font-stretch:normal;font-size:20.27218628px;line-height:1.25;font-family:sans-serif;-inkscape-font-specification:'sans-serif, Normal';font-variant-ligatures:normal;font-variant-caps:normal;font-variant-numeric:normal;font-feature-settings:normal;text-align:center;letter-spacing:0px;word-spacing:0px;writing-mode:lr-tb;text-anchor:middle;fill:#000000;fill-opacity:1;stroke:none;stroke-width:0.50680465"
         xml:space="preserve"><tspan
           style="font-style:normal;font-variant:normal;font-weight:normal;font-stretch:normal;font-size:20.27218628px;font-family:Vegur;-inkscape-font-specification:'Vegur, Normal';font-variant-ligatures:normal;font-variant-caps:normal;font-variant-numeric:normal;font-feature-settings:normal;text-align:center;writing-mode:lr-tb;text-anchor:middle;stroke-width:0.50680465"
           y="282.41901"
           x="290.59586"
           id="tspan1123-8-3-6-9-0-6"
           sodipodi:role="line">avcodec</tspan></text>
    </g>
    <g
       id="g1149-7-3-2"
       transform="matrix(0.16933333,0,0,0.16933333,25.600839,75.469783)">
      <text
         id="text1125-9-7-4"
         y="273.57428"
         x="291.15283"
         style="font-style:normal;font-variant:normal;font-weight:normal;font-stretch:normal;font-size:12.40264988px;line-height:1.25;font-family:sans-serif;-inkscape-font-specification:'sans-serif, Normal';font-variant-ligatures:normal;font-variant-caps:normal;font-variant-numeric:normal;font-feature-settings:normal;text-align:center;letter-spacing:0px;word-spacing:0px;writing-mode:lr-tb;text-anchor:middle;fill:#000000;fill-opacity:1;stroke:none;stroke-width:0.31006622"
         xml:space="preserve"><tspan
           style="font-style:normal;font-variant:normal;font-weight:normal;font-stretch:normal;font-size:12.40264988px;font-family:Vegur;-inkscape-font-specification:'Vegur, Normal';font-variant-ligatures:normal;font-variant-caps:normal;font-variant-numeric:normal;font-feature-settings:normal;text-align:center;writing-mode:lr-tb;text-anchor:middle;fill:#000000;fill-opacity:0.42857145;stroke-width:0.31006622"
           y="273.57428"
           x="292.58203"
           id="tspan1123-0-3-7"
           sodipodi:role="line">Sound </tspan></text>
      <text
         id="text1125-6-3-2-9"
         y="291.79401"
         x="290.59586"
         style="font-style:normal;font-variant:normal;font-weight:normal;font-stretch:normal;font-size:20.27218628px;line-height:1.25;font-family:sans-serif;-inkscape-font-specification:'sans-serif, Normal';font-variant-ligatures:normal;font-variant-caps:normal;font-variant-numeric:normal;font-feature-settings:normal;text-align:center;letter-spacing:0px;word-spacing:0px;writing-mode:lr-tb;text-anchor:middle;fill:#000000;fill-opacity:1;stroke:none;stroke-width:0.50680465"
         xml:space="preserve"><tspan
           style="font-style:normal;font-variant:normal;font-weight:normal;font-stretch:normal;font-size:20.27218628px;font-family:Vegur;-inkscape-font-specification:'Vegur, Normal';font-variant-ligatures:normal;font-variant-caps:normal;font-variant-numeric:normal;font-feature-settings:normal;text-align:center;writing-mode:lr-tb;text-anchor:middle;stroke-width:0.50680465"
           y="291.79401"
           x="290.59586"
           id="tspan1123-8-3-6-3"
           sodipodi:role="line">alsa</tspan></text>
    </g>
    <g
       id="g1149-7-3-7"
       transform="matrix(0.16933333,0,0,0.16933333,23.867959,45.718839)">
      <text
         id="text1125-9-7-8"
         y="272.59772"
         x="291.15283"
         style="font-style:normal;font-variant:normal;font-weight:normal;font-stretch:normal;font-size:12.40264988px;line-height:1.25;font-family:sans-serif;-inkscape-font-specification:'sans-serif, Normal';font-variant-ligatures:normal;font-variant-caps:normal;font-variant-numeric:normal;font-feature-settings:normal;text-align:center;letter-spacing:0px;word-spacing:0px;writing-mode:lr-tb;text-anchor:middle;fill:#000000;fill-opacity:1;stroke:none;stroke-width:0.31006622"
         xml:space="preserve"><tspan
           style="font-style:normal;font-variant:normal;font-weight:normal;font-stretch:normal;font-size:12.40264988px;font-family:Vegur;-inkscape-font-specification:'Vegur, Normal';font-variant-ligatures:normal;font-variant-caps:normal;font-variant-numeric:normal;font-feature-settings:normal;text-align:center;writing-mode:lr-tb;text-anchor:middle;fill:#000000;fill-opacity:0.42857145;stroke-width:0.31006622"
           y="272.59772"
           x="291.15283"
           id="tspan1123-0-3-9"
           sodipodi:role="line">Media tags</tspan></text>
      <text
         id="text1125-6-3-2-1"
         y="291.79401"
         x="290.59586"
         style="font-style:normal;font-variant:normal;font-weight:normal;font-stretch:normal;font-size:20.27218628px;line-height:1.25;font-family:sans-serif;-inkscape-font-specification:'sans-serif, Normal';font-variant-ligatures:normal;font-variant-caps:normal;font-variant-numeric:normal;font-feature-settings:normal;text-align:center;letter-spacing:0px;word-spacing:0px;writing-mode:lr-tb;text-anchor:middle;fill:#000000;fill-opacity:1;stroke:none;stroke-width:0.50680465"
         xml:space="preserve"><tspan
           style="font-style:normal;font-variant:normal;font-weight:normal;font-stretch:normal;font-size:20.27218628px;font-family:Vegur;-inkscape-font-specification:'Vegur, Normal';font-variant-ligatures:normal;font-variant-caps:normal;font-variant-numeric:normal;font-feature-settings:normal;text-align:center;writing-mode:lr-tb;text-anchor:middle;stroke-width:0.50680465"
           y="291.79401"
           x="290.59586"
           id="tspan1123-8-3-6-5"
           sodipodi:role="line">taglib</tspan></text>
    </g>
    <g
       id="g1149-7-3-4"
       transform="matrix(0.16933333,0,0,0.16933333,69.136654,45.4518)">
      <text
         id="text1125-9-7-9"
         y="275.72272"
         x="291.15283"
         style="font-style:normal;font-variant:normal;font-weight:normal;font-stretch:normal;font-size:12.40264988px;line-height:1.25;font-family:sans-serif;-inkscape-font-specification:'sans-serif, Normal';font-variant-ligatures:normal;font-variant-caps:normal;font-variant-numeric:normal;font-feature-settings:normal;text-align:center;letter-spacing:0px;word-spacing:0px;writing-mode:lr-tb;text-anchor:middle;fill:#000000;fill-opacity:1;stroke:none;stroke-width:0.31006622"
         xml:space="preserve"><tspan
           style="font-style:normal;font-variant:normal;font-weight:normal;font-stretch:normal;font-size:12.40264988px;font-family:Vegur;-inkscape-font-specification:'Vegur, Normal';font-variant-ligatures:normal;font-variant-caps:normal;font-variant-numeric:normal;font-feature-settings:normal;text-align:center;writing-mode:lr-tb;text-anchor:middle;fill:#000000;fill-opacity:0.42857145;stroke-width:0.31006622"
           y="275.72272"
           x="291.15283"
           id="tspan1123-0-3-2"
           sodipodi:role="line">GUI library</tspan></text>
      <text
         id="text1125-6-3-2-5"
         y="291.79401"
         x="290.59586"
         style="font-style:normal;font-variant:normal;font-weight:normal;font-stretch:normal;font-size:20.27218628px;line-height:1.25;font-family:sans-serif;-inkscape-font-specification:'sans-serif, Normal';font-variant-ligatures:normal;font-variant-caps:normal;font-variant-numeric:normal;font-feature-settings:normal;text-align:center;letter-spacing:0px;word-spacing:0px;writing-mode:lr-tb;text-anchor:middle;fill:#000000;fill-opacity:1;stroke:none;stroke-width:0.50680465"
         xml:space="preserve"><tspan
           style="font-style:normal;font-variant:normal;font-weight:normal;font-stretch:normal;font-size:20.27218628px;font-family:Vegur;-inkscape-font-specification:'Vegur, Normal';font-variant-ligatures:normal;font-variant-caps:normal;font-variant-numeric:normal;font-feature-settings:normal;text-align:center;writing-mode:lr-tb;text-anchor:middle;stroke-width:0.50680465"
           y="291.79401"
           x="290.59586"
           id="tspan1123-8-3-6-7"
           sodipodi:role="line">qt5</tspan></text>
    </g>
    <g
       id="g1149-7-3-6-6-8"
       transform="matrix(0.25484816,0,0,0.25484816,22.031978,20.484221)">
      <text
         id="text1125-9-7-5-0-1"
         y="270.59772"
         x="291.15283"
         style="font-style:normal;font-variant:normal;font-weight:normal;font-stretch:normal;font-size:12.40264988px;line-height:1;font-family:sans-serif;-inkscape-font-specification:'sans-serif, Normal';font-variant-ligatures:normal;font-variant-caps:normal;font-variant-numeric:normal;font-feature-settings:normal;text-align:center;letter-spacing:0px;word-spacing:0px;writing-mode:lr-tb;text-anchor:middle;fill:#000000;fill-opacity:1;stroke:none;stroke-width:0.31006622"
         xml:space="preserve"><tspan
           style="font-style:normal;font-variant:normal;font-weight:normal;font-stretch:normal;font-size:12.40264988px;font-family:Vegur;-inkscape-font-specification:'Vegur, Normal';font-variant-ligatures:normal;font-variant-caps:normal;font-variant-numeric:normal;font-feature-settings:normal;text-align:center;writing-mode:lr-tb;text-anchor:middle;fill:#000000;fill-opacity:0.42857145;stroke-width:0.31006622"
           y="270.59772"
           x="291.15283"
           sodipodi:role="line"
           id="tspan1353-7">Media player</tspan></text>
      <text
         id="text1125-6-3-2-7-1-82"
         y="291.79401"
         x="290.59586"
         style="font-style:normal;font-variant:normal;font-weight:normal;font-stretch:normal;font-size:20.27218628px;line-height:1.25;font-family:sans-serif;-inkscape-font-specification:'sans-serif, Normal';font-variant-ligatures:normal;font-variant-caps:normal;font-variant-numeric:normal;font-feature-settings:normal;text-align:center;letter-spacing:0px;word-spacing:0px;writing-mode:lr-tb;text-anchor:middle;fill:#000000;fill-opacity:1;stroke:none;stroke-width:0.50680465"
         xml:space="preserve"><tspan
           style="font-style:normal;font-variant:normal;font-weight:normal;font-stretch:normal;font-size:20.27218628px;font-family:Vegur;-inkscape-font-specification:'Vegur, Normal';font-variant-ligatures:normal;font-variant-caps:normal;font-variant-numeric:normal;font-feature-settings:normal;text-align:center;writing-mode:lr-tb;text-anchor:middle;stroke-width:0.50680465"
           y="291.79401"
           x="290.59586"
           id="tspan1123-8-3-6-9-0-5"
           sodipodi:role="line">VLC</tspan></text>
    </g>
    <g
       id="g1149-7-3-6-6-4-2"
       transform="matrix(0.16933333,0,0,0.16933333,68.160954,77.513889)">
      <text
         id="text1125-9-7-5-0-8-4"
         y="261.22272"
         x="291.15283"
         style="font-style:normal;font-variant:normal;font-weight:normal;font-stretch:normal;font-size:12.40264988px;line-height:1;font-family:sans-serif;-inkscape-font-specification:'sans-serif, Normal';font-variant-ligatures:normal;font-variant-caps:normal;font-variant-numeric:normal;font-feature-settings:normal;text-align:center;letter-spacing:0px;word-spacing:0px;writing-mode:lr-tb;text-anchor:middle;fill:#000000;fill-opacity:1;stroke:none;stroke-width:0.31006622"
         xml:space="preserve"><tspan
           style="font-style:normal;font-variant:normal;font-weight:normal;font-stretch:normal;font-size:12.40264988px;font-family:Vegur;-inkscape-font-specification:'Vegur, Normal';font-variant-ligatures:normal;font-variant-caps:normal;font-variant-numeric:normal;font-feature-settings:normal;text-align:center;writing-mode:lr-tb;text-anchor:middle;fill:#000000;fill-opacity:0.42857145;stroke-width:0.31006622"
           y="261.22272"
           x="291.15283"
           sodipodi:role="line"
           id="tspan1353-0-9">Audio codec</tspan></text>
      <text
         id="text1125-6-3-2-7-1-8-0"
         y="283.98151"
         x="291.37711"
         style="font-style:normal;font-variant:normal;font-weight:normal;font-stretch:normal;font-size:20.27218628px;line-height:1.25;font-family:sans-serif;-inkscape-font-specification:'sans-serif, Normal';font-variant-ligatures:normal;font-variant-caps:normal;font-variant-numeric:normal;font-feature-settings:normal;text-align:center;letter-spacing:0px;word-spacing:0px;writing-mode:lr-tb;text-anchor:middle;fill:#000000;fill-opacity:1;stroke:none;stroke-width:0.50680465"
         xml:space="preserve"><tspan
           style="font-style:normal;font-variant:normal;font-weight:normal;font-stretch:normal;font-size:20.27218628px;font-family:Vegur;-inkscape-font-specification:'Vegur, Normal';font-variant-ligatures:normal;font-variant-caps:normal;font-variant-numeric:normal;font-feature-settings:normal;text-align:center;writing-mode:lr-tb;text-anchor:middle;stroke-width:0.50680465"
           y="283.98151"
           x="291.37711"
           id="tspan1123-8-3-6-9-0-6-1"
           sodipodi:role="line">vorbis</tspan></text>
    </g>
    <path
       style="clip-rule:evenodd;fill:#ffffff;fill-rule:evenodd;stroke:#000000;stroke-width:0.26458332;stroke-linecap:round"
       d="m 49.647832,132.29075 c 0.567266,-0.0942 1.124479,-0.24606 1.66026,-0.45482 0.20611,-0.67125 -0.288925,-1.3888 -0.643731,-1.89865 -1.398059,-2.00977 3.700991,-1.72191 4.58417,-1.4904 1.291167,0.33814 1.862138,0.87657 0.852223,2.06852 -1.464998,1.72931 1.18454,1.47875 2.407444,1.57347 1.933839,0.15002 3.873235,0.24316 5.812896,0.25612 -0.434711,-1.58909 -0.951971,-3.05832 -1.015736,-3.62294 -0.142875,-1.26788 0.37465,-4.26905 2.176992,-3.93621 0.782108,0.14447 1.409435,0.7329 2.207419,0.82048 1.203853,0.13229 1.593055,-1.00304 1.732755,-1.97935 0.13679,-0.95541 -0.105304,-1.89309 -0.896937,-2.50031 -1.020498,-0.24263 -1.896798,0.43312 -2.849298,0.64717 -2.589477,0.58182 -2.394743,-1.86135 -1.925637,-3.4634 0.186796,-0.63791 0.229658,-1.24804 0.197908,-1.84811 -2.519098,-0.0299 -5.036343,-0.19288 -7.5438,-0.43286 -1.74916,-0.16748 -0.08149,-1.51527 0.2667,-2.36591 -0.06112,-1.09061 -1.703652,-1.20967 -2.582333,-1.30783 -1.340908,-0.15002 -2.220912,0.29527 -3.429529,0.59399 -0.518054,1.02499 0.451379,1.3716 0.642144,2.37781 0.28284,1.11786 -2.622815,0.93848 -3.455723,0.99774 -1.391973,0.0987 -2.787915,0.14341 -4.183327,0.14447 -0.271463,2.6e-4 -0.542925,-0.003 -0.814123,-0.006 -0.545042,1.67534 -0.900377,3.48694 0.145521,5.0591 1.744133,1.05383 5.13371,-2.17911 5.29881,1.41922 0.112184,2.44661 -1.268941,3.01572 -3.236118,2.10079 -2.307961,-1.07315 -2.986353,1.86082 -2.827867,3.61686 0.09684,1.07394 0.316177,2.01427 0.432064,2.95248 1.222375,0.25242 2.439988,0.53473 3.678503,0.6903 1.097491,0.13732 2.214033,0.17066 3.30835,-0.0116 z"
       id="path1026"
       inkscape:connector-curvature="0" />
  </g>
</svg>
